Key,0,1,2,3,4,5,6,7,8,9,10,11,12,13
1,"P, F, F, F, F, F, F, F, F, F, F, F, F, F, F, F, F, P&
    P, F, F, F, F, F, F, F, F, F, F, F, F, F, F, F, F, W&
    W, F, F, F, F, F, F, F, F, F, F, F, F, F, F, F, F, P&
    W, F, F, F, F, F, F, F, F, F, F, F, F, F, F, F, F, W&
    W, F, F, F, F, F, F, F, F, F, F, F, F, F, F, F, F, P&
    P, F, F, F, F, F, F, R, F, F, F, F, F, F, F, F, F, W&
    W, F, F, F, F, F, F, F, F, F, F, F, F, F, F, F, F, W&
    W, F, F, F, F, F, F, F, F, F, F, F, F, F, F, F, F, P&
    W, F, F, F, F, F, F, F, F, F, F, F, F, F, F, F, F, W&
    W, F, F, F, F, F, F, F, F, F, F, F, F, F, F, F, F, W","P, P, F, F, F, F, F, F, F, F, F, F, F, F, F, F, F, P&
    P, P, F, F, F, F, F, F, F, F, F, F, F, F, F, F, F, P&
    P, P, F, F, F, F, F, F, F, F, F, F, F, F, F, F, F, P&
    P, P, F, F, F, F, F, F, F, F, F, F, F, F, F, F, F, P&
    P, P, F, F, F, F, F, R, F, F, F, F, F, F, F, F, F, P&
    P, P, F, F, F, F, F, F, F, F, F, F, F, F, F, F, F, P&
    P, P, F, F, F, F, F, F, F, F, F, F, F, F, F, F, F, P&
    P, L-3-3-1, F, F, F, F, F, F, F, F, F, F, F, F, F, F, F, P&
    P, P, F, F, F, F, F, F, F, F, F, F, F, F, F, F, F, L-3-3-2&
    P, W, F, F, F, F, F, F, F, F, F, F, F, F, F, F, F, W","P, P, F, F, F, F, F, F, F, F, F, F, F, F, F, F, P, P&
    P, P, F, F, F, F, F, F, F, F, F, F, F, F, F, F, W, P&
    P, W, F, F, F, F, F, F, F, F, F, F, F, F, F, F, P, P&
    P, P, F, F, F, F, F, F, F, F, F, F, F, F, F, F, W, P&
    P, P, F, F, F, F, F, F, F, F, F, F, F, F, F, F, P, P&
    P, W, F, F, F, F, F, F, F, F, F, F, F, F, F, F, F, P&
    P, P, F, F, F, F, F, F, F, F, F, F, F, F, F, F, P, P&
    P, P, F, F, F, F, F, F, F, F, F, F, F, F, F, F, F, W&
    P, W, F, F, F, F, F, F, F, F, F, F, F, F, F, F, F, P&
    P, W, F, F, F, F, F, F, F, F, F, F, F, F, F, F, W, P","P, P, P, P, F, F, F, F, F, F, F, F, F, F, F, P, P, P&
    P, P, P, P, F, F, F, F, F, F, F, F, F, F, F, P, P, P&
    P, P, P, P, F, F, F, F, F, F, F, F, F, F, F, P, P, P&
    P, P, P, P, F, F, F, F, F, F, F, F, F, F, F, P, P, P&
    P, P, P, P, F, F, F, F, F, F, F, F, F, F, F, P, P, P&
    P, P, P, P, F, F, F, F, F, F, F, F, F, F, F, P, P, P&
    P, P, P, P, F, F, F, F, F, F, F, F, F, F, F, P, P, P&
    P, P, P, L-2-2-2-1, F, F, F, F, F, F, F, F, F, F, F, P, P, P&
    P, P, P, P, F, F, F, F, F, F, F, F, F, F, F, L-2-2-2-2, P, P&
    P, P, P, W, F, F, F, F, F, F, F, F, F, F, F, W, P, P","P, P, P, P, P, F, F, F, F, F, F, F, F, W, P, P, P, P&
    P, P, W, F, F, F, F, F, F, F, P, P, P, P, P, P, P, P&
    P, P, P, P, P, P, F, F, F, F, F, F, F, F, F, W, P, P&
    P, P, P, P, P, P, P, P, F, F, F, F, F, F, P, P, P, P&
    P, P, P, P, P, P, P, W, F, F, F, F, F, F, F, P, P, P&
    P, P, P, P, P, P, P, F, F, F, F, F, F, F, W, P, P, P&
    P, P, W, F, F, F, F, F, P, P, P, P, P, P, P, P, P, P&
    P, P, P, P, P, P, P, P, F, F, F, F, F, F, F, W, P, P&
    W, F, F, F, F, F, F, F, F, F, F, F, F, P, P, P, P, P&
    P, P, W, F, F, F, F, F, F, F, F, F, F, F, F, W, P, P","    P, P, P, P, F, F, F, F, F, F, F, F, F, F, F, P, P, P&
    P, P, P, P, F, F, F, F, F, F, F, F, F, F, F, P, P, P&
    P, P, P, P, F, F, F, F, F, F, F, F, F, F, F, P, P, P&
    P, P, P, P, F, F, F, F, F, F, F, F, F, F, F, P, P, P&
    P, P, P, P, F, F, F, F, F, F, F, F, F, F, F, P, P, P&
    P, P, P, P, F, F, F, F, F, F, F, F, F, F, F, P, P, P&
    P, P, P, P, F, F, F, F, F, F, F, F, F, F, F, P, P, P&
    P, P, P, L-2-2-2-1, F, F, F, F, F, F, F, F, F, F, F, P, P, P&
    P, P, P, P, F, F, F, F, F, F, F, F, F, F, F, L-2-2-2-2, P, P&
    P, P, P, W, F, F, F, F, F, F, F, F, F, F, F, W, P, P","    P, P, P, P, P, P, P, P, P, F, F, F, F, W, P, P, P, P&
    P, P, P, P, P, F, F, F, F, P, P, P, P, P, P, P, P, P&
    W, F, F, F, F, P, P, P, P, P, P, P, P, P, P, P, P, P&
    P, P, P, P, P, F, F, F, F, F, F, P, P, P, P, P, P, P&
    P, P, P, P, P, P, P, P, F, F, F, P, P, P, P, P, P, P&
    P, F, F, F, F, F, F, F, F, P, P, F, F, F, F, F, W, P&
    P, P, P, P, P, P, P, F, F, F, P, P, P, P, P, P, P, P&
    P, P, P, P, P, F, F, P, P, P, P, P, P, P, P, P, P, P&
    W, F, F, F, F, P, P, F, F, P, P, P, P, P, P, P, P, P&
    P, P, P, W, F, F, F, F, F, F, F, F, F, F, W, P, P, P","    P, P, P, P, P, F, F, F, F, F, F, F, F, F, P, P, P, P&
    P, P, P, P, P, F, F, F, F, F, F, F, F, F, P, P, P, P&
    P, P, P, P, P, F, F, F, F, F, F, F, F, F, P, P, P, P&
    P, P, P, P, P, F, F, F, F, F, F, F, F, F, P, P, P, P&
    P, P, P, P, P, F, F, F, F, F, F, F, F, F, P, P, P, P&
    P, P, P, P, P, F, F, F, F, F, F, F, F, F, P, P, P, P&
    P, P, P, P, P, F, F, F, F, F, F, F, F, F, P, P, P, P&
    P, P, P, P, P, F, F, F, F, F, F, F, F, F, L-2-2-2-1, P, P, P&
    P, P, P, P, L-2-2-3-1, F, F, F, F, F, F, F, F, F, P, P, P, P&
    P, P, P, P, W, F, F, F, F, F, F, F, F, F, W, P, P, P","    P, P, W, F, F, F, F, F, F, F, F, F, F, F, P, P, P, P&
    P, P, P, P, P, F, F, F, F, F, F, F, F, F, P, P, P, P&
    P, F, F, F, F, F, F, F, F, F, F, F, F, W, P, P, P, P&
    P, W, F, F, F, F, F, F, F, F, F, F, F, F, F, F, F, F&
    P, P, F, F, F, F, F, F, F, F, F, F, F, F, W, P, P, P&
    P, P, F, F, F, F, F, F, F, F, F, F, F, F, F, F, F, P&
    P, P, W, F, F, F, F, F, F, F, F, F, F, F, F, F, F, P&
    P, P, P, F, F, F, F, F, F, F, F, F, F, F, F, F, W, P&
    P, P, P, F, F, F, F, F, F, F, F, F, F, F, F, F, P, P&
    P, P, P, P, W, F, F, F, F, F, F, F, F, W, P, P, P, P","    P, P, P, P, P, F, F, F, F, F, F, F, F, F, P, P, P, P&
    P, P, P, F, F, F, F, F, F, F, F, P, P, P, P, P, P, P&
    P, P, P, P, P, P, F, F, F, F, F, F, F, F, P, P, P, P&
    P, P, P, F, F, F, F, F, F, F, F, P, P, P, P, P, P, P&
    P, P, P, P, P, P, F, F, F, F, F, F, F, F, P, P, P, P&
    P, P, P, F, F, F, F, F, F, F, F, P, P, P, P, P, P, P&
    P, P, P, P, P, P, F, F, F, F, F, F, F, F, P, P, P, P&
    P, P, L-2-2-2-1, F, F, F, F, F, F, F, F, P, P, P, P, P, P, P&
    P, P, P, P, P, P, P, F, F, F, F, F, F, F, L-2-2-2-2, P, P, P&
    P, P, P, P, W, F, F, F, F, F, F, F, W, P, P, P, P, P","    P, P, P, P, P, P, P, P, F, F, F, F, P, P, P, P, P, P&
    P, P, P, P, P, P, P, P, P, P, P, P, F, F, F, F, W, P&
    P, P, P, P, P, P, F, F, F, F, F, F, P, P, P, P, P, P&
    W, F, F, F, F, F, F, F, F, F, P, P, P, P, P, P, P, P&
    P, P, P, F, F, F, F, P, P, P, P, P, P, P, P, P, P, P&
    P, P, P, P, P, F, F, F, F, P, P, P, P, P, P, P, P, P&
    P, P, P, P, P, P, P, F, F, F, F, P, P, P, P, P, P, P&
    P, P, P, P, P, P, P, P, P, F, F, F, W, P, P, P, P, P&
    P, P, P, P, P, W, F, F, F, P, P, P, P, P, P, P, P, P&
    P, P, P, P, W, F, F, F, F, F, F, W, P, P, P, P, P, P","    P, P, P, P, P, P, P, P, F, F, F, F, P, P, P, P, P, P&
    P, P, P, P, F, F, F, F, F, F, P, P, P, P, P, P, P, P&
    P, P, P, P, P, P, P, P, F, F, P, P, P, P, P, P, P, P&
    P, P, P, P, P, P, P, P, F, F, F, F, F, F, P, P, P, P&
    P, P, P, P, P, P, P, P, F, F, P, P, P, P, P, P, P, P&
    P, P, P, L-4, F, F, F, F, F, F, P, P, P, P, P, P, P, P&
    P, P, P, P, P, P, P, P, F, F, P, P, P, P, P, P, P, P&
    P, P, P, P, P, P, P, P, F, F, F, F, F, F, L-4-3, P, P, P&
    P, P, P, P, P, P, P, P, F, F, P, P, P, P, P, P, P, P&
    P, P, P, P, P, W, F, F, F, F, F, F, W, P, P, P, P, P","P,P,P,P,F,F,F,F,F,F,F,P,P,P,P,P,P,P&
P,P,P,P,W,F,F,F,F,F,F,P,P,P,P,P,P,P&
P,P,P,P,F,F,F,F,F,F,W,P,P,P,P,P,P,P&
P,P,P,P,P,P,F,F,F,P,P,P,P,P,P,P,P,P&
P,P,P,P,W,F,F,F,F,F,F,P,P,P,P,P,P,P&
P,P,P,P,P,P,F,F,F,F,W,P,P,P,P,P,P,P&
P,P,P,P,P,P,P,F,F,F,F,P,P,P,P,P,P,P&
P,P,P,P,W,F,F,F,F,F,F,P,P,P,P,P,P,P&
P,P,P,P,F,F,F,F,F,F,W,P,P,P,P,P,P,P&
P,P,P,P,W,F,F,F,F,F,W,P,P,P,P,P,P,P&","P,P,P,P,P,F,F,F,F,F,W,P,P,P,P,P,P,P&
P,P,P,P,P,W,F,F,F,F,P,P,P,P,P,P,P,P&
P,P,P,P,P,P,F,F,F,F,F,P,P,P,P,P,P,P&
P,P,P,P,P,F,F,F,F,F,W,P,P,P,P,P,P,P&
P,P,P,P,P,W,F,F,F,F,P,P,P,P,P,P,P,P&
P,P,P,P,P,W,F,F,F,F,P,P,P,P,P,P,P,P&
P,P,P,P,P,F,F,F,F,F,W,P,P,P,P,P,P,P&
P,P,P,P,P,W,F,F,F,F,P,P,P,P,P,P,P,P&
P,P,P,P,P,F,F,F,F,F,P,P,P,P,P,P,P,P&
P,P,P,P,P,W,F,F,F,F,W,P,P,P,P,P,P,P&
"
2,,"W,F,F,F,F,F,F,F,F,F,F,F,F,F,F,F,F,P&
P,F,F,F,F,F,F,F,F,F,F,F,F,F,F,F,F,F&
P,F,F,F,F,F,F,F,F,F,F,F,F,F,F,F,F,W&
F,F,F,F,F,F,F,F,F,F,F,F,F,F,F,F,F,P&
W,F,F,F,F,F,F,F,F,F,F,F,F,F,F,F,F,P&
P,F,F,F,F,F,F,F,F,F,F,F,F,F,F,F,F,F&
P,F,F,F,F,F,F,F,F,F,F,F,F,F,F,F,F,W&
F,F,F,F,F,F,F,F,F,F,F,F,F,F,F,F,F,P&
W,F,F,F,F,F,F,F,F,F,F,F,F,F,F,F,F,P&
P,W,F,F,F,F,F,F,F,F,F,F,F,F,F,F,F,W&","P,P,F,F,F,F,F,F,F,F,F,F,F,F,F,F,P,P&
P,P,F,F,F,F,F,F,F,F,F,F,F,F,F,F,P,P&
P,P,F,F,F,F,F,F,F,F,F,F,F,F,F,F,P,P&
P,P,F,F,F,F,F,F,F,F,F,F,F,F,F,F,P,P&
P,P,F,F,F,F,F,F,F,F,F,F,F,F,F,F,P,P&
P,P,F,F,F,F,F,F,F,F,F,F,F,F,F,F,P,P&
P,P,F,F,F,F,F,F,F,F,F,F,F,F,F,F,P,P&
P,P,F,F,F,F,F,F,F,F,F,F,F,F,F,F,L-2-2-2-1,P&
P,L-2-2-2-2,F,F,F,F,F,F,F,F,F,F,F,F,F,F,P,P&
P,W,F,F,F,F,F,F,F,F,F,F,F,F,F,F,W,P&","P,P,P,F,F,F,F,F,F,F,F,F,F,F,F,F,P,P&
P,P,P,F,F,F,F,F,F,F,F,F,F,F,F,F,P,P&
P,P,P,F,F,F,F,F,F,F,F,F,F,F,F,F,P,P&
P,P,P,F,F,F,F,F,F,F,F,F,F,F,F,F,P,P&
P,P,P,F,F,F,F,F,F,F,F,F,F,F,F,F,P,P&
P,P,P,F,F,F,F,F,F,F,F,F,F,F,F,F,P,P&
P,P,P,F,F,F,F,F,F,F,F,F,F,F,F,F,P,P&
P,P,P,F,F,F,F,F,F,F,F,F,F,F,F,F,L-2-2-2-1,P&
P,P,L-3-3-2,F,F,F,F,F,F,F,F,F,F,F,F,F,P,P&
P,P,W,F,F,F,F,F,F,F,F,F,F,F,F,F,W,P&","P,P,F,F,F,F,F,F,F,F,F,F,F,F,F,F,P,P&
P,P,F,F,F,F,F,F,F,F,F,F,F,F,F,F,P,P&
P,P,W,F,F,F,F,F,F,P,P,P,P,P,P,P,P,P&
P,P,F,F,F,F,F,F,F,F,F,P,P,P,P,P,P,P&
P,P,F,F,F,F,F,F,F,F,F,F,F,P,P,P,P,P&
P,P,F,F,F,F,F,F,F,F,F,F,F,F,F,W,P,P&
P,P,F,F,F,F,F,F,F,F,F,F,F,P,P,P,P,P&
P,P,F,F,F,F,F,F,F,F,F,P,P,P,P,P,P,P&
P,P,W,F,F,F,F,F,F,P,P,P,P,P,P,P,P,P&
P,P,W,F,F,F,F,F,F,F,F,F,F,F,F,W,P,P&","P,P,P,P,F,F,F,F,F,F,F,F,F,F,F,P,P,P&
P,P,P,P,F,F,F,F,F,F,F,F,F,F,F,P,P,P&
P,P,P,P,F,F,F,F,F,F,F,F,F,F,F,P,P,P&
P,P,P,P,F,F,F,F,F,F,F,F,F,F,F,P,P,P&
P,P,P,P,F,F,F,F,F,F,F,F,F,F,F,P,P,P&
P,P,P,P,F,F,F,F,F,F,F,F,F,F,F,P,P,P&
P,P,P,P,F,F,F,F,F,F,F,F,F,F,F,L-2-2-2,P,P&
P,P,P,P,F,F,F,F,F,F,F,F,F,F,F,P,P,P&
P,P,P,L-3-3-2,F,F,F,F,F,F,F,F,F,F,F,P,P,P&
P,P,P,W,F,F,F,F,F,F,F,F,F,F,F,W,P,P&
",,,,,,,,
3,,"W,F,F,F,F,F,F,F,F,F,F,F,F,F,F,F,F,F&
F,F,F,F,F,F,F,F,F,F,F,F,F,F,F,F,F,W&
F,F,F,F,F,F,F,F,F,F,F,F,F,F,F,F,F,W&
W,F,F,F,F,F,F,F,F,F,F,F,F,F,F,F,F,F&
W,F,F,F,F,F,F,F,F,F,F,F,F,F,F,F,F,F&
F,F,F,F,F,F,F,F,F,F,F,F,F,F,F,F,F,W&
F,F,F,F,F,F,F,F,F,F,F,F,F,F,F,F,F,W&
W,F,F,F,F,F,F,F,F,F,F,F,F,F,F,F,F,F&
W,F,F,F,F,F,F,F,F,F,F,F,F,F,F,F,F,F&
P,W,F,F,F,F,F,F,F,F,F,F,F,F,F,F,F,W&","P,P,F,F,F,F,F,F,F,F,F,F,F,F,F,F,P,P&
P,P,F,F,F,F,F,F,F,F,F,F,F,F,F,F,P,P&
P,P,F,F,F,F,F,F,F,F,F,F,F,F,F,F,P,P&
P,P,F,F,F,F,F,F,F,F,F,F,F,F,F,F,P,P&
P,P,F,F,F,F,F,F,F,F,F,F,F,F,F,F,P,P&
P,P,F,F,F,F,F,F,F,F,F,F,F,F,F,F,P,P&
P,P,F,F,F,F,F,F,F,F,F,F,F,F,F,F,P,P&
P,P,L-3-3-1,F,F,F,F,F,F,F,F,F,F,F,F,F,P,P&
P,P,F,F,F,F,F,F,F,F,F,F,F,F,F,F,L-3-3-2,P&
P,W,F,F,F,F,F,F,F,F,F,F,F,F,F,F,W,P&
","P,P,P,P,P,P,P,P,F,F,F,F,F,F,F,F,W,P&
P,P,W,F,F,F,F,F,F,F,F,F,F,F,F,F,P,P&
P,P,W,F,F,F,F,F,F,F,P,P,P,P,P,P,P,P&
P,P,P,P,P,P,P,P,P,P,F,F,F,F,F,F,W,P&
P,P,F,F,F,F,F,F,F,F,F,F,F,F,F,F,W,P&
P,P,W,F,F,F,F,F,F,F,P,P,P,P,P,P,P,P&
P,P,P,P,P,P,P,P,F,F,F,F,F,F,F,F,W,P&
P,P,W,F,F,F,F,F,F,F,P,P,P,P,P,P,P,P&
P,P,W,F,F,F,F,F,F,F,F,F,F,F,F,F,F,P&
P,P,W,F,F,F,F,F,F,F,F,F,F,F,F,F,W,P&","P,P,F,F,F,F,F,F,F,F,F,F,F,F,P,P,P,P&
P,P,W,F,F,F,F,F,P,P,P,P,P,P,P,P,P,P&
P,P,F,F,F,F,F,F,F,F,W,P,P,P,P,P,P,P&
P,P,W,F,F,F,F,P,P,P,P,P,P,P,P,P,P,P&
P,P,P,P,F,F,F,F,F,F,P,P,P,P,P,P,P,P&
P,P,P,P,P,P,F,F,F,F,F,F,P,P,P,P,P,P&
P,P,F,F,F,F,F,F,F,F,F,F,F,F,F,W,P,P&
P,P,W,F,F,F,F,F,F,F,P,P,P,P,P,P,P,P&
P,P,P,P,P,P,P,P,P,F,F,F,F,F,F,F,P,P&
P,P,W,F,F,F,F,F,F,F,F,F,F,F,F,W,P,P&
","W,F,F,F,F,F,F,F,F,F,F,F,P,P,P,P,P,P&
P,F,F,F,F,F,F,F,F,F,F,F,F,F,P,P,P,P&
P,P,P,F,F,F,F,F,F,F,F,F,F,W,P,P,P,P&
P,P,P,P,P,F,F,F,F,F,F,F,F,F,F,P,P,P&
P,P,W,F,F,F,F,F,F,F,F,F,F,F,F,P,P,P&
P,P,P,F,F,F,F,F,F,F,F,F,F,P,P,P,P,P&
P,P,P,F,F,F,F,F,F,F,F,F,F,F,F,W,P,P&
P,P,P,P,W,F,F,F,F,F,F,F,F,F,F,F,P,P&
P,P,P,P,P,F,F,F,F,F,F,F,F,F,F,F,P,P&
P,P,P,P,P,W,F,F,F,F,F,F,F,F,F,F,F,W&",,,,,,,,
4,,"P,F,F,F,F,F,F,F,F,F,F,F,F,F,F,F,F,W&
P,F,F,F,F,F,F,F,F,F,F,F,F,F,F,F,F,W&
P,F,F,F,F,F,F,F,F,F,F,F,F,F,F,F,F,P&
W,F,F,F,F,F,F,F,F,F,F,F,F,F,F,F,F,P&
P,F,F,F,F,F,F,F,F,F,F,F,F,F,F,F,F,P&
P,F,F,F,F,F,F,F,F,F,F,F,F,F,F,F,F,W&
P,F,F,F,F,F,F,F,F,F,F,F,F,F,F,F,F,P&
W,F,F,F,F,F,F,F,F,F,F,F,F,F,F,F,F,P&
P,F,F,F,F,F,F,F,F,F,F,F,F,F,F,F,F,P&
W,F,F,F,F,F,F,F,F,F,F,F,F,F,F,F,W,P&","P,F,F,F,F,F,F,F,F,F,F,F,F,F,F,F,W,P&
P,W,F,F,F,F,F,F,F,F,F,F,F,F,F,F,F,P&
P,F,F,F,F,F,F,F,F,F,F,F,F,F,F,F,F,P&
P,F,F,F,F,F,F,F,F,F,F,F,F,F,F,F,W,P&
P,F,F,F,F,F,F,F,F,F,F,F,F,F,F,F,F,P&
P,W,F,F,F,F,F,F,F,F,F,F,F,F,F,F,F,P&
P,F,F,F,F,F,F,F,F,F,F,F,F,F,F,F,F,P&
P,F,F,F,F,F,F,F,F,F,F,F,F,F,F,F,W,P&
P,F,F,F,F,F,F,F,F,F,F,F,F,F,F,F,F,P&
P,W,F,F,F,F,F,F,F,F,F,F,F,F,F,F,W,P&","P,P,W,F,F,F,F,F,F,F,P,P,P,P,P,P,P,P&
P,P,P,P,P,P,P,P,P,P,F,F,F,F,F,F,W,P&
P,P,W,F,F,F,F,F,F,F,F,F,F,F,F,F,F,P&
P,P,W,F,F,F,F,F,F,F,F,F,P,P,P,P,P,P&
P,P,F,F,F,F,F,F,F,F,F,F,F,F,F,F,W,P&
P,P,P,P,P,P,P,P,P,P,P,F,F,F,F,F,W,P&
P,P,W,F,F,F,F,F,F,F,F,P,P,P,P,P,P,P&
P,P,F,F,F,F,F,F,F,F,F,F,F,F,F,F,W,P&
P,P,P,P,P,P,P,F,F,F,F,F,F,F,F,F,F,P&
P,P,W,F,F,F,F,F,F,F,F,F,F,F,F,F,W,P&","P,P,P,P,F,F,F,F,F,F,F,F,F,F,F,F,P,P&
P,P,P,P,F,F,F,F,F,F,F,F,F,F,F,F,P,P&
P,P,P,P,F,F,F,F,F,F,F,F,F,F,F,F,P,P&
P,P,P,P,F,F,F,F,F,F,F,F,F,F,F,F,P,P&
P,P,P,P,F,F,F,F,F,F,F,F,F,F,F,F,P,P&
P,P,P,P,F,F,F,F,F,F,F,F,F,F,F,F,P,P&
P,P,P,P,F,F,F,F,F,F,F,F,F,F,F,F,L-4-2,P&
P,P,P,P,F,F,F,F,F,F,F,F,F,F,F,F,P,P&
P,P,P,L-4-4,F,F,F,F,F,F,F,F,F,F,F,F,P,P&
P,P,P,W,F,F,F,F,F,F,F,F,F,F,F,F,W,P&
","P,P,P,P,P,W,F,F,F,F,F,F,F,F,F,F,F,F&
P,P,P,P,P,P,F,F,F,F,F,F,F,P,P,P,P,P&
P,P,P,P,P,P,P,P,F,F,F,F,F,F,F,W,P,P&
P,P,P,W,F,F,F,F,F,F,F,P,P,P,P,P,P,P&
P,P,P,P,P,P,P,P,F,F,F,F,F,F,W,P,P,P&
P,P,F,F,F,F,F,F,F,F,F,P,P,P,P,P,P,P&
P,W,F,F,F,F,F,F,F,F,F,F,F,F,P,P,P,P&
P,P,P,P,P,F,F,F,F,F,F,F,F,W,P,P,P,P&
P,P,F,F,F,F,F,F,F,F,F,F,F,P,P,P,P,P&
W,F,F,F,F,F,F,F,F,F,F,F,W,P,P,P,P,P&
",,,,,,,,
5,,"P,F,F,F,F,F,F,F,F,F,F,F,F,F,F,F,F,P&
P,F,F,F,F,F,F,F,F,F,F,F,F,F,F,F,F,W&
P,F,F,F,F,F,F,F,F,F,F,F,F,F,F,F,F,P&
W,F,F,F,F,F,F,F,F,F,F,F,F,F,F,F,F,P&
W,F,F,F,F,F,F,F,F,F,F,F,F,F,F,F,F,P&
P,F,F,F,F,F,F,F,F,F,F,F,F,F,F,F,F,P&
P,F,F,F,F,F,F,F,F,F,F,F,F,F,F,F,F,P&
P,F,F,F,F,F,F,F,F,F,F,F,F,F,F,F,F,W&
P,F,F,F,F,F,F,F,F,F,F,F,F,F,F,F,F,W&
W,F,F,F,F,F,F,F,F,F,F,F,F,F,F,F,W,P&","P,F,F,F,F,F,F,F,F,F,F,F,F,F,F,F,F,P&
P,W,F,F,F,F,F,F,F,F,F,F,F,F,F,F,F,P&
P,F,F,F,F,F,F,F,F,F,F,F,F,F,F,F,W,P&
P,W,F,F,F,F,F,F,F,F,F,F,F,F,F,F,F,P&
P,W,F,F,F,F,F,F,F,F,F,F,F,F,F,F,F,P&
P,F,F,F,F,F,F,F,F,F,F,F,F,F,F,F,F,P&
P,F,F,F,F,F,F,F,F,F,F,F,F,F,F,F,F,P&
P,F,F,F,F,F,F,F,F,F,F,F,F,F,F,F,W,P&
P,W,F,F,F,F,F,F,F,F,F,F,F,F,F,F,F,P&
P,W,F,F,F,F,F,F,F,F,F,F,F,F,F,F,W,P&","P,P,P,F,F,F,F,F,F,F,F,F,F,F,F,W,P,P&
P,P,P,P,F,F,F,F,F,F,F,F,F,F,P,P,P,P&
P,W,F,F,F,F,F,F,F,F,F,F,P,P,P,P,P,P&
P,P,P,P,P,P,P,P,F,F,F,F,F,F,F,W,P,P&
P,F,F,F,F,F,F,F,F,F,F,F,F,F,F,F,P,P&
P,W,F,F,F,F,F,F,F,F,F,F,P,P,P,P,P,P&
P,P,P,P,P,P,P,F,F,F,F,F,F,F,F,W,P,P&
P,W,F,F,F,F,F,F,F,F,F,F,F,F,F,F,P,P&
P,P,P,P,F,F,F,F,F,F,F,F,F,P,P,P,P,P&
P,W,F,F,F,F,F,F,F,F,F,F,F,F,F,W,P,P&","P,P,F,F,F,F,F,F,F,F,F,F,F,F,P,P,P,P&
P,P,F,F,F,F,F,F,F,F,F,F,F,F,P,P,P,P&
P,P,F,F,F,F,F,F,F,F,F,F,F,F,P,P,P,P&
P,P,F,F,F,F,F,F,F,F,F,F,F,F,P,P,P,P&
P,P,F,F,F,F,F,F,F,F,F,F,F,F,P,P,P,P&
P,P,F,F,F,F,F,F,F,F,F,F,F,F,P,P,P,P&
P,P,F,F,F,F,F,F,F,F,F,F,F,F,P,P,P,P&
P,L-3-2-2,F,F,F,F,F,F,F,F,F,F,F,F,P,P,P,P&
P,P,F,F,F,F,F,F,F,F,F,F,F,F,L-4-2-2,P,P,P&
P,W,F,F,F,F,F,F,F,F,F,F,F,F,W,P,P,P&
","P,P,P,P,F,F,F,F,F,F,F,F,F,P,P,P,P,P&
W,F,F,F,F,F,F,F,F,F,F,P,P,P,P,P,P,P&
P,P,F,F,F,F,F,F,F,F,F,F,F,F,F,F,W,P&
P,P,P,P,F,F,F,F,F,F,F,F,F,P,P,P,P,P&
W,F,F,F,F,F,F,F,F,F,F,P,P,P,P,P,P,P&
P,P,P,P,P,P,F,F,F,F,F,F,F,F,F,F,F,W&
P,P,P,P,F,F,F,F,F,F,F,F,F,F,F,P,P,P&
P,W,F,F,F,F,F,F,F,F,F,F,F,F,P,P,P,P&
P,P,P,P,F,F,F,F,F,F,F,F,F,F,F,F,F,W&
P,P,W,F,F,F,F,F,F,F,F,F,F,F,W,P,P,P&
",,,,,,,,